JonStats - Time Series
…
Now some seasonal data

Code

# Using this example dataset: https://otexts.com/fpp3/components.html
data(us_employment)
us_retail_employment <- us_employment |>
  filter(Title == "Retail Trade")

us_retail_employment

# A tsibble: 969 x 4 [1M]
# Key:       Series_ID [1]
      Month Series_ID     Title        Employed
      <mth> <chr>         <chr>           <dbl>
 1 1939 Jan CEU4200000001 Retail Trade    3009 
 2 1939 Feb CEU4200000001 Retail Trade    3002.
 3 1939 Mar CEU4200000001 Retail Trade    3052.
 4 1939 Apr CEU4200000001 Retail Trade    3098.
 5 1939 May CEU4200000001 Retail Trade    3123 
 6 1939 Jun CEU4200000001 Retail Trade    3141.
 7 1939 Jul CEU4200000001 Retail Trade    3100 
 8 1939 Aug CEU4200000001 Retail Trade    3092.
 9 1939 Sep CEU4200000001 Retail Trade    3191.
10 1939 Oct CEU4200000001 Retail Trade    3242.
# ℹ 959 more rows
…
Expressed verbally, if we imagine two entities - self and other - tracked through time, self is influenced both by self’s history, but also by other’s history too.

Example and application in R

In a blog post, I discussed how I suspect economic growth and longevity growth trends are correlated. What I proposed doesn’t exactly lend itself to the simplest kind of VAR(1) model specification, because I suggested a longer lag between the influence of economic growth on longevity growth, and a change in the fundamentals of growth in both cases. However, as an example of VAR I will ignore these complexities, and use the data I prepared for that post: I also discussed how I suspect economic growth and longevity growth trends are correlated. What I proposed doesn’t exactly lend itself to the simplest kind of VAR(1) model specification, because I suggested a longer lag between the influence of economic growth on longevity growth, and a change in the fundamentals of growth in both cases. However, as an example of VAR I will ignore these complexities, and use the data I prepared for that post:

Code

library(tidyverse)

gdp_growth_pct_series <- read_csv("still-the-economy-both-series.csv") 

gdp_growth_pct_series

# A tibble: 147 × 5
    ...1  year series            pct_change period
   <dbl> <dbl> <chr>                  <dbl> <chr> 
 1     1  1949 1. Per Capita GDP     NA     Old   
 2     2  1950 1. Per Capita GDP      2.20  Old   
 3     3  1951 1. Per Capita GDP      2.92  Old   
 4     4  1952 1. Per Capita GDP      1.36  Old   
 5     5  1953 1. Per Capita GDP      5.07  Old   
 6     6  1954 1. Per Capita GDP      3.87  Old   
 7     7  1955 1. Per Capita GDP      3.55  Old   
 8     8  1956 1. Per Capita GDP      1.28  Old   
 9     9  1957 1. Per Capita GDP      1.49  Old   
10    10  1958 1. Per Capita GDP      0.815 Old   
# ℹ 137 more rows
…
wide_ts_series

# A tibble: 71 × 5
    year   gdp      e0 lag_gdp  lag_e0
   <dbl> <dbl>   <dbl>   <dbl>   <dbl>
 1  1951 2.92  -0.568    2.20   0.763 
 2  1952 1.36   1.89     2.92  -0.568 
 3  1953 5.07   0.388    1.36   1.89  
 4  1954 3.87   0.530    5.07   0.388 
 5  1955 3.55  -0.0570   3.87   0.530 
 6  1956 1.28   0.385    3.55  -0.0570
 7  1957 1.49   0.170    1.28   0.385 
 8  1958 0.815  0.255    1.49   0.170 
 9  1959 3.70   0.184    0.815  0.255 
10  1960 5.72   0.268    3.70   0.184 
# ℹ 61 more rows
…
