JonStats - Hacker Stats
…
In this post we’ve discussed the key ideas behind resampling methods, AKA Hacker Stats. These approaches are computationally intensive as compared with analytical solutions, which would have been a big barrier to their use until, perhaps, the mid 1980s. However computationally intensive these days might just mean it takes five seconds to perform many times, whereas the analytic solution takes five microseconds: still a large relative difference in computing time, but practically both kinds of approaches are similarly fast to perform.

These days, whether you know an analytic approximation for performing the test or calculation of interest, or whether you don’t, the Hacker Stats approach is still worth trying out. Even at their slowest, the worst case scenario with Hacker Stats is your computer might whirr a bit more loudly than usual, and you’ll finally have a good excuse to get that much-deserved tea- or coffee-break!

Bootstrapping example

I’m not going to look for length-of-stay data; instead I’m going to look at length-of-teeth, and the hamster experiment dataset I used in the main course.

Code

library(tidyverse)
df <- ToothGrowth |> tibble()
df

# A tibble: 60 × 3
     len supp   dose
   <dbl> <fct> <dbl>
 1   4.2 VC      0.5
 2  11.5 VC      0.5
 3   7.3 VC      0.5
 4   5.8 VC      0.5
 5   6.4 VC      0.5
 6  10   VC      0.5
 7  11.2 VC      0.5
 8  11.2 VC      0.5
 9   5.2 VC      0.5
10   7   VC      0.5
# ℹ 50 more rows
…
We can perform this permutation test using the infer package as follows:

Code

model <- gss |>
    specify(age ~ sex) |>
    hypothesize(null = 'independence') |>
    generate(reps = 10000, type = 'permute')

model

Response: age (numeric)
Explanatory: sex (factor)
Null Hypothesis: independence
# A tibble: 5,000,000 × 3
# Groups:   replicate [10,000]
     age sex    replicate
   <dbl> <fct>      <int>
 1    57 male           1
 2    49 female         1
 3    61 male           1
 4    23 male           1
 5    20 male           1
 6    36 female         1
 7    42 female         1
 8    28 female         1
 9    51 female         1
10    32 female         1
# ℹ 4,999,990 more rows
…
Let’s see how we could use infer to help decide between these hypotheses, using a permutation test:

Code

model <- gss |>
    specify(partyid ~ college) |>
    hypothesize(null = 'independence') |>
    generate(reps = 10000, type = 'permute')

model

Response: partyid (factor)
Explanatory: college (factor)
Null Hypothesis: independence
# A tibble: 5,000,000 × 3
# Groups:   replicate [10,000]
   partyid college   replicate
   <fct>   <fct>         <int>
 1 rep     degree            1
 2 rep     no degree         1
 3 dem     degree            1
 4 rep     no degree         1
 5 other   degree            1
 6 ind     no degree         1
 7 dem     no degree         1
 8 rep     degree            1
 9 rep     degree            1
10 ind     no degree         1
# ℹ 4,999,990 more rows
…
So, the value is 4.15. Is this a big or a small value?

To answer that let’s calculate the same statistic from the Null distribution

Code

chi_dist_null <- model |>
    calculate(stat = "Chisq")

chi_dist_null

Response: partyid (factor)
Explanatory: college (factor)
Null Hypothesis: independence
# A tibble: 10,000 × 2
   replicate  stat
       <int> <dbl>
 1         1 2.08 
 2         2 1.29 
 3         3 0.508
 4         4 3.71 
 5         5 0.438
 6         6 2.35 
 7         7 7.17 
 8         8 6.03 
 9         9 2.67 
10        10 0.834
# ℹ 9,990 more rows
…
