JonStats - Statistical Simulation: A Complete Example
…
Modelling Hamster Tooth Growth

Let’s start with one of the built-in datasets, ToothGrowth, which is described as follows:

The response is the length of odontoblasts (cells responsible for tooth growth) in 60 guinea pigs. Each animal received one of three dose levels of vitamin C (0.5, 1, and 2 mg/day) by one of two delivery methods, orange juice or ascorbic acid (a form of vitamin C and coded as VC).

Let’s load the dataset and visualise

Code

library(tidyverse)
df <- ToothGrowth |> tibble()
df

# A tibble: 60 × 3
     len supp   dose
   <dbl> <fct> <dbl>
 1   4.2 VC      0.5
 2  11.5 VC      0.5
 3   7.3 VC      0.5
 4   5.8 VC      0.5
 5   6.4 VC      0.5
 6  10   VC      0.5
 7  11.2 VC      0.5
 8  11.2 VC      0.5
 9   5.2 VC      0.5
10   7   VC      0.5
# ℹ 50 more rows
…
The simplest approach to getting model predictions is to use the predict function, passing it a dataframe of values for which we want predictions:

Code

predictor_df <- expand_grid(
    supp = c('VC', 'OJ'), 
    dose = seq(0.25, 2.25, by = 0.01)
)
preds_predictors_df <- predictor_df |>
    mutate(pred_len = predict(mod_03a, predictor_df))

preds_predictors_df

# A tibble: 402 × 3
   supp   dose pred_len
   <chr> <dbl>    <dbl>
 1 VC     0.25   -1.20 
 2 VC     0.26   -0.683
 3 VC     0.27   -0.189
 4 VC     0.28    0.288
 5 VC     0.29    0.748
 6 VC     0.3     1.19 
 7 VC     0.31    1.62 
 8 VC     0.32    2.04 
 9 VC     0.33    2.44 
10 VC     0.34    2.83 
# ℹ 392 more rows
…
With the model developed previously, let’s now look at some convenience functions, other than just summary, that work with lm() and glm() objects, and recover the quantities required from MVN to represent the uncertainty cloud.

Extracting quantities for modelling uncertainty

Firstly, for the point estimates \(\dot{\theta}\), we can use the coefficients() function

Code

## Building our model 

library(tidyverse)
df <- ToothGrowth |> tibble()
df

# A tibble: 60 × 3
     len supp   dose
   <dbl> <fct> <dbl>
 1   4.2 VC      0.5
 2  11.5 VC      0.5
 3   7.3 VC      0.5
 4   5.8 VC      0.5
 5   6.4 VC      0.5
 6  10   VC      0.5
 7  11.2 VC      0.5
 8  11.2 VC      0.5
 9   5.2 VC      0.5
10   7   VC      0.5
# ℹ 50 more rows
…
predictions_df <- 
    tibble(
        x0 = predictions_ev_x0,
        x1 = predictions_ev_x1
    ) |>
    mutate(
        fd = x1 - x0
    )

predictions_df

# A tibble: 10,000 × 3
      x0    x1    fd
   <dbl> <dbl> <dbl>
 1  23.3  19.6 -3.71
 2  23.1  20.2 -2.85
 3  22.5  20.2 -2.37
 4  21.7  20.6 -1.04
 5  22.9  21.1 -1.76
 6  23.0  20.6 -2.44
 7  22.1  19.8 -2.31
 8  21.8  20.0 -1.83
 9  22.7  20.2 -2.57
10  22.9  20.7 -2.17
# ℹ 9,990 more rows
…
However there are also an increasingly large number of Bayesian modelling packages that abstract away some of the assumptions and complexity apparent in the above specialised Bayesian modelling languages, and allow Bayesian versions of the kinds of model we’re already familiar with to be specified using formulae interfaces almost identical to what we’ve already worked with. Let’s look at one of them, rstanarm, which allows us to use stan, a full Bayesian statistical programming language, without quite as much thinking and set-up being required on our part.

Let’s try to use this to build a Bayesian equivalent of the hamster tooth model we worked on in the last couple of posts.

Data Preparation and Frequentist modelling

Let’s start by getting the dataset and building the frequentist version of the model we’re already familiar with:

Code

library(tidyverse)
df <- ToothGrowth |> tibble()
df

# A tibble: 60 × 3
     len supp   dose
   <dbl> <fct> <dbl>
 1   4.2 VC      0.5
 2  11.5 VC      0.5
 3   7.3 VC      0.5
 4   5.8 VC      0.5
 5   6.4 VC      0.5
 6  10   VC      0.5
 7  11.2 VC      0.5
 8  11.2 VC      0.5
 9   5.2 VC      0.5
10   7   VC      0.5
# ℹ 50 more rows
…
